{
  "title": "Item Information - Indexes",
  "url": "https://www.loc.gov/marc/bibliographic/bd878.html",
  "type": "array",
  "items": {
    "type": "object",
    "properties": {
      "indicator1": {
        "title": "Undefined",
        "type": "string",
        "const": "\\",
        "defaultValue": "\\",
        "code": {
          "\\": {
            "title": "Undefined"
          }
        }
      },
      "indicator2": {
        "title": "Undefined",
        "type": "string",
        "const": "\\",
        "defaultValue": "\\",
        "code": {
          "\\": {
            "title": "Undefined"
          }
        }
      },
      "subFields": {
        "type": "array",
        "items": {
          "type": "object",
          "defaultProperties": [
            "a"
          ],
          "properties": {
            "a": {
              "title": "Internal item number",
              "type": "string",
              "pattern": "^(?!\\s*$).+",
              "isRepeatable": false
            },
            "b": {
              "title": "Invalid or canceled internal item number",
              "type": "string",
              "pattern": "^(?!\\s*$).+",
              "isRepeatable": true
            },
            "c": {
              "title": "Cost",
              "type": "string",
              "pattern": "^(?!\\s*$).+",
              "isRepeatable": true
            },
            "d": {
              "title": "Date acquired",
              "type": "string",
              "pattern": "^(?!\\s*$).+",
              "isRepeatable": true
            },
            "e": {
              "title": "Source of acquisition",
              "type": "string",
              "pattern": "^(?!\\s*$).+",
              "isRepeatable": true
            },
            "h": {
              "title": "Use restrictions",
              "type": "string",
              "pattern": "^(?!\\s*$).+",
              "isRepeatable": true
            },
            "j": {
              "title": "Item status",
              "type": "string",
              "pattern": "^(?!\\s*$).+",
              "isRepeatable": true
            },
            "l": {
              "title": "Temporary location",
              "type": "string",
              "pattern": "^(?!\\s*$).+",
              "isRepeatable": true
            },
            "p": {
              "title": "Piece designation",
              "type": "string",
              "pattern": "^(?!\\s*$).+",
              "isRepeatable": true
            },
            "r": {
              "title": "Invalid or canceled piece designation",
              "type": "string",
              "pattern": "^(?!\\s*$).+",
              "isRepeatable": true
            },
            "t": {
              "title": "Copy number",
              "type": "string",
              "pattern": "^(?!\\s*$).+",
              "isRepeatable": false
            },
            "x": {
              "title": "Nonpublic note",
              "type": "string",
              "pattern": "^(?!\\s*$).+",
              "isRepeatable": true
            },
            "z": {
              "title": "Public note",
              "type": "string",
              "pattern": "^(?!\\s*$).+",
              "isRepeatable": true
            },
            "3": {
              "title": "Materials specified",
              "type": "string",
              "pattern": "^(?!\\s*$).+",
              "isRepeatable": true
            },
            "6": {
              "title": "Linkage",
              "type": "string",
              "pattern": "^(?!\\s*$).+",
              "isRepeatable": false
            },
            "8": {
              "title": "Field link and sequence number",
              "type": "string",
              "pattern": "^(?!\\s*$).+",
              "isRepeatable": false
            }
          },
          "additionalProperties": false
        },
        "minItems": 1
      }
    },
    "required": [
      "indicator1",
      "indicator2",
      "subFields"
    ]
  },
  "minItems": 1,
  "isRepeatable": true
}