{
  "title": "Former Publication Frequency",
  "url": "https://www.loc.gov/marc/bibliographic/bd321.html",
  "type": "array",
  "items": {
    "type": "object",
    "properties": {
      "indicator1": {
        "title": "Undefined",
        "type": "string",
        "const": "\\",
        "defaultValue": "\\",
        "code": {
          "\\": {
            "title": "Undefined"
          }
        }
      },
      "indicator2": {
        "title": "Undefined",
        "type": "string",
        "const": "\\",
        "defaultValue": "\\",
        "code": {
          "\\": {
            "title": "Undefined"
          }
        }
      },
      "subFields": {
        "type": "array",
        "items": {
          "type": "object",
          "defaultProperties": [
            "a"
          ],
          "properties": {
            "0": {
              "title": "Authority record control number or standard number",
              "type": "string",
              "pattern": "^(?!\\s*$).+",
              "isRepeatable": false
            },"1": {
              "title": "Real World Object URI",
              "type": "string",
              "pattern": "^(?!\\s*$).+",
              "isRepeatable": true
            },"2": {
              "title": "Source",
              "type": "string",
              "pattern": "^(?!\\s*$).+",
              "isRepeatable": false
            },"6": {
              "title": "Linkage",
              "type": "string",
              "pattern": "^(?!\\s*$).+",
              "isRepeatable": false
            },
            "8": {
              "title": "Field link and sequence number",
              "type": "string",
              "pattern": "^(?!\\s*$).+",
              "isRepeatable": true
            },
            "a": {
              "title": "Former publication frequency",
              "type": "string",
              "pattern": "^(?!\\s*$).+",
              "isRepeatable": false,
              "ISSNProfile": "mandatory"
            },
            "b": {
              "title": "Dates of former publication frequency",
              "type": "string",
              "pattern": "^(?!\\s*$).+",
              "isRepeatable": false
            }
          },
          "additionalProperties": false
        },
        "allOf": [
          {
            "contains": {
              "type": "object",
              "properties": {
                "a": {
                  "type": "string"
                }
              },
              "required": [
                "a"
              ]
            }
          }
        ],
        "minItems": 1
      }
    },
    "required": [
      "indicator1",
      "indicator2",
      "subFields"
    ]
  },
  "minItems": 1,
  "isRepeatable": true,
  "ISSNProfile": "optional"
}
